// Jest Snapshot v1, https://goo.gl/fbAQLP

exports[`Home.vue renders correctly 1`] = `
<div
  class="Home"
>
  <section
    class="my-modal"
    name="my-modal"
    style="display: none;"
  >
    <h1>
      エラー
    </h1>
     
    <div
      class="my-modal-body"
    >
      
    </div>
     
    <div
      class="my-modal-footer"
    >
      <button>
        Close
      </button>
    </div>
  </section>
   
  <header
    class="home-header"
  >
    <nav
      class="navbar navbar-toggleable-md navbar-dark"
    >
      <ul
        class="navbar-nav pr-1"
      >
        <li
          class="nav-item active"
        >
          <img
            height="25"
            src="@/assets/icons/home.png"
            width="25"
          />
        </li>
      </ul>
       
      <ul
        class="navbar-nav"
      >
        <li
          class="nav-item active"
        >
          <a
            class="nav-link"
            style="font-size: 20px;"
          >
            
           
          
            <span
              class="sr-only"
            />
          </a>
        </li>
      </ul>
       
      <ul
        class="navbar-nav pl-1"
      >
        <li
          class="nav-item active"
        >
          <img
            height="25"
            src="@/assets/icons/ico_user_w.png"
            width="25"
          />
        </li>
      </ul>
    </nav>
  </header>
   
  <main>
    <div
      class="cover-image-div"
    >
      <!---->
    </div>
     
    <section
      class="profile"
    >
      <div
        class="profile-element profile-post pl-5"
      >
        <h2>
          投稿
        </h2>
         
        <h1>
          0
        </h1>
      </div>
       
      <div
        class="profile-element profile-user mx-1"
      >
        <div
          class="profile-image-div"
        >
          <!---->
        </div>
         
        <h2>
          ユーザーID：...
        </h2>
      </div>
       
      <div
        class="profile-element profile-post pr-5"
      >
        <h2>
          共有
        </h2>
         
        <h1>
          0
        </h1>
      </div>
    </section>
     
    <div
      class="button-edit-profile"
    >
      <a
        href="#"
      >
        <img
          height="25px"
          src="@/assets/icons/ico_gear_y.png"
          width="25px"
        />
      </a>
    </div>
     
    <section
      class="post-category mt-4"
    >
      <button
        class="button post-category-element"
      >
        <section
          class="count-element"
        >
          <div
            class="no-count"
          />
        </section>
         
        <section>
          <img
            height="auto"
            src="@/assets/icons/ico_folder_y.png"
            width="30"
          />
        </section>
         
        <section>
          <div
            class="category-name"
          >
            親子手帳
          </div>
           
          <div
            class="no-updatedAt"
          >
            nothing
          </div>
        </section>
      </button>
      <button
        class="button post-category-element"
      >
        <section
          class="count-element"
        >
          <div
            class="no-count"
          />
        </section>
         
        <section>
          <img
            height="auto"
            src="@/assets/icons/ico_folder_y.png"
            width="30"
          />
        </section>
         
        <section>
          <div
            class="category-name"
          >
            学歴手帳
          </div>
           
          <div
            class="no-updatedAt"
          >
            nothing
          </div>
        </section>
      </button>
      <button
        class="button post-category-element"
      >
        <section
          class="count-element"
        >
          <div
            class="no-count"
          />
        </section>
         
        <section>
          <img
            height="auto"
            src="@/assets/icons/ico_folder_y.png"
            width="30"
          />
        </section>
         
        <section>
          <div
            class="category-name"
          >
            健康手帳
          </div>
           
          <div
            class="no-updatedAt"
          >
            nothing
          </div>
        </section>
      </button>
      <button
        class="button post-category-element"
      >
        <section
          class="count-element"
        >
          <div
            class="no-count"
          />
        </section>
         
        <section>
          <img
            height="auto"
            src="@/assets/icons/ico_folder_y.png"
            width="30"
          />
        </section>
         
        <section>
          <div
            class="category-name"
          >
            職歴手帳
          </div>
           
          <div
            class="no-updatedAt"
          >
            nothing
          </div>
        </section>
      </button>
      <button
        class="button post-category-element"
      >
        <section
          class="count-element"
        >
          <div
            class="no-count"
          />
        </section>
         
        <section>
          <img
            height="auto"
            src="@/assets/icons/ico_folder_y.png"
            width="30"
          />
        </section>
         
        <section>
          <div
            class="category-name"
          >
            記念手帳
          </div>
           
          <div
            class="no-updatedAt"
          >
            nothing
          </div>
        </section>
      </button>
      <button
        class="button post-category-element"
      >
        <section
          class="count-element"
        >
          <div
            class="no-count"
          />
        </section>
         
        <section>
          <img
            height="auto"
            src="@/assets/icons/ico_folder_y.png"
            width="30"
          />
        </section>
         
        <section>
          <div
            class="category-name"
          >
            間柄手帳
          </div>
           
          <div
            class="no-updatedAt"
          >
            nothing
          </div>
        </section>
      </button>
      <button
        class="button post-category-element"
      >
        <section
          class="count-element"
        >
          <div
            class="no-count"
          />
        </section>
         
        <section>
          <img
            height="auto"
            src="@/assets/icons/ico_folder_y.png"
            width="30"
          />
        </section>
         
        <section>
          <div
            class="category-name"
          >
            家計手帳
          </div>
           
          <div
            class="no-updatedAt"
          >
            nothing
          </div>
        </section>
      </button>
      <button
        class="button post-category-element"
      >
        <section
          class="count-element"
        >
          <div
            class="no-count"
          />
        </section>
         
        <section>
          <img
            height="auto"
            src="@/assets/icons/ico_folder_y.png"
            width="30"
          />
        </section>
         
        <section>
          <div
            class="category-name"
          >
            財産手帳
          </div>
           
          <div
            class="no-updatedAt"
          >
            nothing
          </div>
        </section>
      </button>
      <button
        class="button post-category-element"
      >
        <section
          class="count-element"
        >
          <div
            class="no-count"
          />
        </section>
         
        <section>
          <img
            height="auto"
            src="@/assets/icons/ico_folder_y.png"
            width="30"
          />
        </section>
         
        <section>
          <div
            class="category-name"
          >
            終活手帳
          </div>
           
          <div
            class="no-updatedAt"
          >
            nothing
          </div>
        </section>
      </button>
    </section>
     
    <aside
      class="introduction"
    >
      <a
        href="#"
      >
        ファミログを家族に紹介する
      </a>
    </aside>
     
    <div
      class="button-go-post"
    >
      <a
        class="button-circle"
        href="#"
      >
        <img
          height="40%"
          src="@/assets/icons/ico_post_w.png"
          width="40%"
        />
      </a>
    </div>
  </main>
</div>
`;
