// Jest Snapshot v1, https://goo.gl/fbAQLP

exports[`Modal.vue matches snapshot 1`] = `
<section
  class="my-modal"
  name="my-modal"
  style="display: none;"
>
  <h1>
    エラー
  </h1>
   
  <div
    class="my-modal-body"
  >
    
  </div>
   
  <div
    class="my-modal-footer"
  >
    <button>
      Close
    </button>
  </div>
</section>
`;
